<?xml version="1.0" encoding="utf-8"?>
<!-- Generator: Adobe Illustrator 22.0.1, SVG Export Plug-In . SVG Version: 6.00 Build 0)  -->
<svg version="1.1" xmlns="http://www.w3.org/2000/svg" xmlns:xlink="http://www.w3.org/1999/xlink" x="0px" y="0px"
	 viewBox="0 0 128 128" style="enable-background:new 0 0 128 128;" xml:space="preserve">
<style type="text/css">
	.st0{fill:none;}
	.st1{fill:none;stroke:#FFBE00;stroke-miterlimit:10;}
	.st2{fill:#FFFFFF;}
	.st3{fill:#FFF200;}
	.st4{fill:#FE0000;}
</style>
<g id="Marc">
	<rect class="st0" width="128" height="128"/>
</g>
<g id="Capa_2">
	<g>
		<path class="st1" d="M86.8,49"/>
		<circle cx="64" cy="64" r="64"/>
		<circle class="st2" cx="64" cy="64" r="60.8"/>
		<g>
			<circle class="st3" cx="64" cy="64" r="53"/>
			<g>
				<polygon class="st4" points="34.9,108 28.7,103.9 22.5,97.2 22.5,30.4 34.9,19 				"/>
				<polygon class="st4" points="105.5,97.7 99.9,103.8 93.1,108.7 93.1,19 105.5,30.8 				"/>
				<polygon class="st4" points="58.5,116.7 52.2,115.7 46,114.3 46,14.2 58.5,11 				"/>
				<polygon class="st4" points="82,113.9 75.8,116 69.5,116.9 69.5,11 82,14.2 				"/>
			</g>
		</g>
		<path d="M64,10.1c-29.8,0-53.9,24.1-53.9,53.9s24.1,53.9,53.9,53.9s53.9-24.1,53.9-53.9S93.8,10.1,64,10.1z M64,116
			c-28.7,0-52-23.3-52-52s23.3-52,52-52s52,23.3,52,52S92.7,116,64,116z"/>
		<g>
			<path class="st2" d="M94.5,83.7c0,0-5.1,8.4-12,7.5c-6.9-1-14-17.6-14-17.6l24-40.1l-7-4.1L64,66L42.5,29.4l-7,4.1l24,40.1
				c0,0-7.1,16.6-14,17.6c-6.9,1-12-7.5-12-7.5l-6.7,4.4c1.6,2.7,3.9,5.1,7.2,7.3c17.5,9.3,24.6-5.6,24.6-5.6L64,81l5.3,8.9
				c0,0,7.1,14.9,24.6,5.6c3.3-2.3,5.6-4.6,7.2-7.3L94.5,83.7z"/>
			<path d="M83.2,98.9c-1.7,0-3.3-0.3-4.8-0.8C71.9,96,69.1,90.3,69,90l-5-8.4l-5,8.4c-0.1,0.2-2.9,5.9-9.3,8.1
				c-4.6,1.5-9.9,0.7-15.7-2.3l0,0c-3.3-2.2-5.6-4.6-7.3-7.4l-0.2-0.3l7.2-4.8l0.2,0.3c0,0.1,5,8.2,11.7,7.3
				c6.3-0.9,13-15.6,13.7-17.3L35.1,33.4l7.6-4.4l0.2,0.3L64,65.4L85.3,29l7.6,4.4l-0.2,0.3L68.8,73.6c0.7,1.7,7.4,16.4,13.7,17.3
				c6.6,0.9,11.6-7.2,11.7-7.3l0.2-0.3l7.2,4.8l-0.2,0.3c-1.7,2.8-4,5.2-7.3,7.4l0,0C90.2,97.9,86.6,98.9,83.2,98.9z M34.2,95.2
				c5.6,3,10.7,3.7,15.2,2.3c6.2-2,8.9-7.7,9-7.8l5.6-9.4l5.6,9.3c0,0.1,2.8,5.8,9,7.8c4.5,1.5,9.6,0.7,15.2-2.3
				c3.1-2.1,5.3-4.3,7-7l-6.2-4.1c-1,1.5-5.7,8.2-12.1,7.3c-7.1-1-14.2-17.6-14.3-17.8l-0.1-0.2l0.1-0.1L92,33.7l-6.5-3.8L64,66.6
				L42.4,29.9L36,33.7l23.9,39.9l-0.1,0.2c-0.1,0.2-7.2,16.8-14.3,17.8c-6.4,0.9-11.1-5.8-12.1-7.3l-6.2,4.1
				C28.9,90.9,31.1,93.1,34.2,95.2z"/>
		</g>
		<g>
			<path class="st2" d="M59.5,79.5v-3.6c0-0.8-0.3-1.6-0.9-2.1L56.9,72c-0.5-0.5-0.8-1.2-0.9-1.9c-0.2-2.8-0.5-9.8,0.7-13.3
				c0.4-1.2,2.3-1.2,2.3,0v-9.7c0-3.2,3.4-3.2,3.4,0v-1.7c0-2.6,3.2-2.6,3.2,0v1.9c0-2.8,3.4-2.8,3.4,0V50c0-1.9,2.6-1.9,2.6,0
				c0,0,0.9,18,0.4,19.8c-0.4,1.5-1.7,4.2-2.3,5.3c-0.2,0.3-0.2,0.6-0.2,1v3.4"/>
			<path d="M71.9,50.2c0-1.7-1.7-2.2-2.6-1.4v-1.2c0-1.6-1-2.4-2-2.4c-0.5,0-1,0.2-1.4,0.6v-0.1c0-1.5-1-2.3-1.9-2.3
				c-0.9,0-1.8,0.6-1.9,1.9c-0.4-0.5-0.9-0.7-1.4-0.7c-1,0-2,0.8-2,2.7v8.6c-0.1-0.1-0.3-0.1-0.4-0.1c-0.7-0.1-1.6,0.2-1.8,1.1
				c-1.2,3.5-0.9,10.6-0.7,13.4c0,0.8,0.4,1.6,1,2.1l1.8,1.8c0.5,0.5,0.8,1.2,0.8,1.9v3.6h0.6v-3.6c0-0.9-0.3-1.7-1-2.3L57.1,72
				c-0.5-0.5-0.7-1.1-0.8-1.7c-0.2-2.8-0.5-9.8,0.7-13.2c0.2-0.5,0.7-0.7,1.1-0.7c0.2,0,0.5,0.1,0.5,0.6v5.6c0,0.5,0.2,1,0.5,1.4
				l2.7,3.7l0.5-0.4l-2.7-3.7c-0.2-0.3-0.3-0.7-0.3-1.1V57v-9.7c0-1.4,0.7-2.1,1.4-2.1c0.3,0,0.7,0.2,0.9,0.5
				c0.3,0.4,0.5,0.9,0.5,1.6v11.4h0.6V47.3v-1.7c0-1.1,0.7-1.6,1.3-1.6c0.6,0,1.3,0.5,1.3,1.6v1.9V58h0.6V47.5
				c0-1.2,0.7-1.8,1.4-1.8c0.7,0,1.4,0.6,1.4,1.8v2.6v8.5h0.6v-8.5c0-0.8,0.5-1.1,1-1.1c0.5,0,1,0.4,1,1.1
				c0.3,6.2,0.8,18.3,0.4,19.7c-0.4,1.4-1.7,4.1-2.2,5.3c-0.2,0.4-0.3,0.7-0.3,1.1v3.4h0.6v-3.4c0-0.3,0.1-0.6,0.2-0.8
				c0.6-1.1,1.9-3.9,2.3-5.4C72.8,68.2,72,50.9,71.9,50.2z"/>
		</g>
		<g>
			<g>
				<path d="M53.3,22c0-2.2-0.4-2.9-1.4-2.9c-1.6,0-1.7,1.4-1.7,6.7c0,5.3,0.2,6.7,1.7,6.7c1.3,0,1.5-1.1,1.5-4.8h4.9v1.5
					c0,5.5-3.2,6.8-6.5,6.8c-5.7,0-7-2.9-7-10.2c0-7.5,1.7-10.2,7-10.2c4.6,0,6.3,2.4,6.3,6.2v1.2h-4.9V22z"/>
				<path d="M60.2,30.2h4.6v5.4h-4.6V30.2z"/>
				<path d="M67.1,16.1h7.6c3.9,0,5.6,2.6,5.6,6c0,4-2.3,6.1-6.4,6.1h-1.8v7.5h-5.1V16.1z M72.2,24.5h1c1.3,0,2-0.7,2-2.4
					c0-1.6-0.7-2.4-2-2.4h-1V24.5z"/>
				<path d="M78.5,30.2h4.6v5.4h-4.6V30.2z"/>
			</g>
			<g>
				<path d="M34.3,94.8h4.1l1.2,6.6h0l1.2-6.6H45v11.1h-2.7v-8.3h0l-1.5,8.3h-2.1L37,97.6h0v8.3h-2.7V94.8z"/>
				<path d="M48,94.8h3.6l2.7,11.1h-3.1L51,104h-2.3l-0.3,1.9h-3.1L48,94.8z M49.9,97.1L49.9,97.1l-0.8,4.7h1.6L49.9,97.1z"/>
				<path d="M54.9,94.8h3.2l1.9,6.8h0v-6.8h2.7v11.1h-3.2l-1.9-6.9h0v6.9h-2.7V94.8z"/>
				<path d="M64.1,94.8H67v8.7h3.6v2.4h-6.5V94.8z"/>
				<path d="M71.3,94.8h2.9v8.7h3.6v2.4h-6.5V94.8z"/>
				<path d="M78.5,94.8h6.6v2.4h-3.7v1.9h3.5v2.3h-3.5v2.2h3.8v2.4h-6.7V94.8z"/>
				<path d="M89.1,94.8v8c0,1.1,0.3,1.4,0.9,1.4s0.9-0.3,0.9-1.4v-8h2.9v7.3c0,3.1-1.3,4-3.8,4c-2.4,0-3.8-0.9-3.8-4v-7.3H89.1z"/>
			</g>
		</g>
	</g>
</g>
</svg>
